{
	"player": {
		"xPos": 1,
		"yPos": 1
	},
	
	"enemies": [
		{
			"type": "enemy_normal",
			"xPos": 5,
			"yPos": 5
		},
		{
			"type": "enemy_strong",
			"xPos": 7,
			"yPos": 2
		},
		{
			"type": "enemy_tank",
			"xPos": 10,
			"yPos": 2
		},
		{
			"type": "enemy_thief",
			"xPos": 10,
			"yPos": 5
		}
	],
	
	"destructables": [
		{
			"type": "barrel",
			"xPos": 12,
			"yPos": 15
		},
		{
			"type": "exploding_barrel",
			"xPos": 15,
			"yPos": 15
		}
	],

	"indestructables": [
		{
			"type": "chest",
			"xPos": 18,
			"yPos": 13
		},
		{
			"type": "wall",
			"xPos": 0,
			"yPos": 0,
			"xSize": 120,
			"ySize": 1
		}
	]
}